V1 n1 0 PWL(0 26.094 120 26.1 240 26.006 360 26.0 480 26.0 600 26.0 720 26.374 840 26.4 960 26.4 1080 26.4 1200 26.4 1320 26.4 1440 26.493 1560 26.5 1680 26.313 1800 26.3 1920 26.3 2040 26.3 2160 26.487 2280 26.5 2400 26.407 2520 26.4 2640 26.493 2760 26.5 2880 26.593 3000 26.6 3120 26.973 3240 27.0 3360 26.533 3480 26.533 3600 26.533)
C1 0 n2 12.450548
V2 n3 0 PWL(0 23.1 120 23.018 240 23.0 360 23.082 480 23.1 600 23.1 720 23.1 840 23.018 960 23.0 1080 23.164 1200 23.2 1320 23.036 1440 23.0 1560 23.164 1680 23.2 1800 23.2 1920 23.2 2040 23.036 2160 23.0 2280 23.0 2400 23.0 2520 23.0 2640 23.0 2760 23.082 2880 23.1 3000 23.018 3120 23.0 3240 23.0 3360 23.0 3480 23.082 3600 23.082)
V3 n4 0 PWL(0 8.7 120 8.711 240 8.8 360 8.832 480 9.1 600 9.047 720 8.6 840 8.6 960 8.6 1080 8.621 1200 8.8 1320 8.779 1440 8.6 1560 8.6 1680 8.6 1800 8.6 1920 8.6 2040 8.6 2160 8.6 2280 8.6 2400 8.6 2520 8.6 2640 8.6 2760 8.6 2880 8.6 3000 8.621 3120 8.8 3240 8.779 3360 8.6 3480 8.579 3600 8.579)
V4 n5 0 PWL(0 25.1 120 25.1 240 25.1 360 25.1 480 25.1 600 25.1 720 25.1 840 25.1 960 25.1 1080 25.1 1200 25.1 1320 25.1 1440 25.1 1560 25.1 1680 25.1 1800 25.1 1920 25.1 2040 25.1 2160 25.1 2280 25.1 2400 25.1 2520 25.1 2640 25.1 2760 25.1 2880 25.1 3000 25.1 3120 25.1 3240 25.1 3360 25.1 3480 25.1 3600 25.1)
R1 n4 n3 0.005
R2 n4 n8 0.000900900900901
R3 n8 n9 6.05
C2 0 n9 -134310.0
R4 n9 n10 0.000900900900901
R5 n10 n3 6.05
R6 n4 n3 0.285714285714
R7 n4 n13 0.21645021645
R8 n13 n14 0.0721212121212
C3 0 n14 -924000.0
R9 n14 n15 0.21645021645
R10 n15 n3 0.0721212121212
R11 n3 n2 0.666666666667
R12 n3 n18 0.0204081632653
R13 n18 n19 0.034
C4 0 n19 -490000.0
R14 n19 n20 0.0204081632653
R15 n20 n2 0.034
R16 n3 n5 1.0
R17 n3 n23 0.0178571428571
R18 n23 n24 0.02975
C5 0 n24 -560000.0
R19 n24 n25 0.0178571428571
R20 n25 n5 0.02975
R21 n4 n2 0.00416666666667
R22 n4 n28 0.047619047619
R23 n28 n29 0.0793333333333
C6 0 n29 -210000.0
R24 n29 n30 0.047619047619
R25 n30 n2 0.0793333333333
R26 n2 n1 0.666666666667
R27 n2 n33 0.119047619048
R28 n33 n34 0.0396666666667
C7 0 n34 -1680000.0
R29 n34 n35 0.119047619048
R30 n35 n1 0.0396666666667
R31 n2 n5 0.285714285714
R32 n2 n38 0.285714285714
R33 n38 n39 0.0952
C8 0 n39 -700000.0
R34 n39 n40 0.285714285714
R35 n40 n5 0.0952
R36 n4 n1 0.25
R37 n4 n43 0.0204081632653
R38 n43 n44 0.034
C9 0 n44 -490000.0
R39 n44 n45 0.0204081632653
R40 n45 n1 0.034
R41 n4 n1 0.4
R42 n4 n48 0.119047619048
R43 n48 n49 0.0396666666667
C10 0 n49 -1680000.0
R44 n49 n50 0.119047619048
R45 n50 n1 0.0396666666667
R46 n1 n5 1.0
R47 n1 n53 0.0142857142857
R48 n53 n54 0.0238
C11 0 n54 -700000.0
R49 n54 n55 0.0142857142857
R50 n55 n5 0.0238
R51 n4 n5 0.2
R52 n4 n58 0.0714285714286
R53 n58 n59 0.119
C12 0 n59 -140000.0
R54 n59 n60 0.0714285714286
R55 n60 n5 0.119
R56 n4 n5 0.2
R57 n4 n63 0.0178571428571
R58 n63 n64 0.02975
C13 0 n64 -560000.0
R59 n64 n65 0.0178571428571
R60 n65 n5 0.02975
R61 n5 n4 0.5
R62 n5 n68 0.0178571428571
R63 n68 n69 0.02975
C14 0 n69 -560000.0
R64 n69 n70 0.0178571428571
R65 n70 n4 0.02975
.tran 0 36000 0
.backanno
.end
